<?xml version="1.0" encoding="UTF-8" standalone="no"?>
<!DOCTYPE svg PUBLIC "-//W3C//DTD SVG 1.1//EN"
 "http://www.w3.org/Graphics/SVG/1.1/DTD/svg11.dtd">
<!-- Generated by graphviz version 2.38.0 (20140413.2041)
 -->
<!-- Title: G Pages: 1 -->
<svg width="147pt" height="122pt"
 viewBox="0.00 0.00 146.59 122.43" xmlns="http://www.w3.org/2000/svg" xmlns:xlink="http://www.w3.org/1999/xlink">
<g id="graph0" class="graph" transform="scale(1 1) rotate(0) translate(4 118.426)">
<title>G</title><style>.edge>path:hover{stroke-width:8}</style>
<polygon fill="white" stroke="none" points="-4,4 -4,-118.426 142.593,-118.426 142.593,4 -4,4"/>
<!-- example_pkg_opi_module -->
<g id="node1" class="node"><title>example_pkg_opi_module</title><style>.edge>path:hover{stroke-width:8}</style>
<ellipse fill="#b65353" stroke="black" cx="69.2965" cy="-93.2132" rx="69.0935" ry="21.4286"/>
<text text-anchor="middle" x="69.2965" y="-96.2132" font-family="Helvetica,sans-Serif" font-size="10.00" fill="#ffffff">example_pkg_opi.</text>
<text text-anchor="middle" x="69.2965" y="-85.2132" font-family="Helvetica,sans-Serif" font-size="10.00" fill="#ffffff">module</text>
</g>
<!-- example_pkg_opi -->
<g id="node2" class="node"><title>example_pkg_opi</title><style>.edge>path:hover{stroke-width:8}</style>
<ellipse fill="#a65959" stroke="black" cx="69.2965" cy="-18" rx="56.5233" ry="18"/>
<text text-anchor="middle" x="69.2965" y="-15.5" font-family="Helvetica,sans-Serif" font-size="10.00" fill="#ffffff">example_pkg_opi</text>
</g>
<!-- example_pkg_opi_module&#45;&gt;example_pkg_opi -->
<g id="edge1" class="edge"><title>example_pkg_opi_module&#45;&gt;example_pkg_opi</title><style>.edge>path:hover{stroke-width:8}</style>
<path fill="none" stroke="black" d="M69.2965,-71.8192C69.2965,-63.9653 69.2965,-54.8636 69.2965,-46.4512"/>
<polygon fill="#b65353" stroke="black" points="72.7966,-46.3099 69.2965,-36.3099 65.7966,-46.31 72.7966,-46.3099"/>
</g>
</g>
</svg>
